…
pols_df =
    left_join(pols_df, polsmonth_df, by = "month") %>% 
  mutate(
    president = prez_gop + prez_dem)  

select(pols_df, year, gov_gop, sen_gop, rep_gop, gov_dem, rep_dem, sen_dem, month_name, president) %>% 
  relocate(year,month_name)
```

    ## # A tibble: 822 x 9
    ##    year  month_name gov_gop sen_gop rep_gop gov_dem rep_dem sen_dem president
    ##    <chr> <chr>        <dbl>   <dbl>   <dbl>   <dbl>   <dbl>   <dbl>     <dbl>
    ##  1 1947  January         23      51     253      23     198      45         1
    ##  2 1947  February        23      51     253      23     198      45         1
    ##  3 1947  March           23      51     253      23     198      45         1
    ##  4 1947  April           23      51     253      23     198      45         1
    ##  5 1947  May             23      51     253      23     198      45         1
    ##  6 1947  June            23      51     253      23     198      45         1
    ##  7 1947  July            23      51     253      23     198      45         1
    ##  8 1947  August          23      51     253      23     198      45         1
    ##  9 1947  September       23      51     253      23     198      45         1
    ## 10 1947  October         23      51     253      23     198      45         1
    ## # … with 812 more rows
…
